<?xml version="1.0" encoding="UTF-8" standalone="no"?>
<!-- Created with Inkscape (http://www.inkscape.org/) -->

<svg
   width="420mm"
   height="297mm"
   viewBox="0 0 420 297"
   version="1.1"
   id="svg4132"
   xmlns:xlink="http://www.w3.org/1999/xlink"
   xmlns="http://www.w3.org/2000/svg"
   xmlns:svg="http://www.w3.org/2000/svg"
   xmlns:index="https://wiki.freecad.org/index.php?title=Svg_Namespace"
   xmlns:freecad="http://www.freecadweb.org/wiki/index.php?title=Svg_Namespace">
  <defs
     id="defs4129" />
  <rect
     style="fill:none;fill-rule:evenodd;stroke:#000000;stroke-width:0.804366;stroke-dasharray:none;stroke-opacity:1"
     id="rect4551"
     width="399.19562"
     height="276.19562"
     x="10.40219"
     y="10.40217" />
  <text
     style="font-style:normal;font-variant:normal;font-weight:normal;font-stretch:normal;font-size:3.175px;font-family:sans-serif;-inkscape-font-specification:sans-serif;text-align:start;text-anchor:start;fill:#000000;fill-opacity:1;stroke:#000000;stroke-width:0.0499999;stroke-dasharray:none;stroke-opacity:1"
     x="265.60654"
     y="249.45822"
     id="text10744"
     index:editable="dd-mm-aa"><tspan
       id="tspan10742"
       style="font-style:normal;font-variant:normal;font-weight:normal;font-stretch:normal;font-family:sans-serif;-inkscape-font-specification:sans-serif;text-align:start;text-anchor:start;stroke-width:0.05"
       x="265.60654"
       y="249.45822">DATE</tspan><tspan
       style="font-style:normal;font-variant:normal;font-weight:normal;font-stretch:normal;font-family:sans-serif;-inkscape-font-specification:sans-serif;text-align:start;text-anchor:start;stroke-width:0.05"
       x="265.60654"
       y="253.42697"
       id="tspan10788" /></text>
  <text
     style="font-style:normal;font-variant:normal;font-weight:normal;font-stretch:normal;font-size:3.175px;font-family:sans-serif;-inkscape-font-specification:sans-serif;text-align:start;text-anchor:start;fill:#000000;fill-opacity:1;stroke:#000000;stroke-width:0.0499999;stroke-dasharray:none;stroke-opacity:1"
     x="265.60654"
     y="263.33884"
     id="text10744-7"><tspan
       id="tspan10742-7"
       style="font-style:normal;font-variant:normal;font-weight:normal;font-stretch:normal;font-family:sans-serif;-inkscape-font-specification:sans-serif;text-align:start;text-anchor:start;stroke-width:0.05"
       x="265.60654"
       y="263.33884">DATE</tspan><tspan
       style="font-style:normal;font-variant:normal;font-weight:normal;font-stretch:normal;font-family:sans-serif;-inkscape-font-specification:sans-serif;text-align:start;text-anchor:start;stroke-width:0.05"
       x="265.60654"
       y="267.30759"
       id="tspan10788-8" /></text>
  <text
     xml:space="preserve"
     style="font-style:normal;font-variant:normal;font-weight:normal;font-stretch:normal;font-size:3.175px;font-family:sans-serif;-inkscape-font-specification:sans-serif;text-align:start;text-anchor:start;fill:#000000;fill-opacity:1;stroke:#000000;stroke-width:0.0499999;stroke-dasharray:none;stroke-opacity:1"
     x="222.38533"
     y="277.3981"
     id="text10740"><tspan
       id="tspan10738"
       style="font-style:normal;font-variant:normal;font-weight:normal;font-stretch:normal;font-family:sans-serif;-inkscape-font-specification:sans-serif;text-align:start;text-anchor:start;stroke-width:0.05"
       x="222.38533"
       y="277.3981">DESIGNED BY</tspan></text>
  <text
     style="font-style:normal;font-variant:normal;font-weight:normal;font-stretch:normal;font-size:3.175px;font-family:sans-serif;-inkscape-font-specification:sans-serif;text-align:start;text-anchor:start;fill:#000000;fill-opacity:1;stroke:#000000;stroke-width:0.0499999;stroke-dasharray:none;stroke-opacity:1"
     x="265.60654"
     y="277.39734"
     id="text10744-1"><tspan
       id="tspan10742-8"
       style="font-style:normal;font-variant:normal;font-weight:normal;font-stretch:normal;font-family:sans-serif;-inkscape-font-specification:sans-serif;text-align:start;text-anchor:start;stroke-width:0.05"
       x="265.60654"
       y="277.39734">DATE</tspan><tspan
       style="font-style:normal;font-variant:normal;font-weight:normal;font-stretch:normal;font-family:sans-serif;-inkscape-font-specification:sans-serif;text-align:start;text-anchor:start;stroke-width:0.05"
       x="265.60654"
       y="281.36609"
       id="tspan10788-80" /></text>
  <text
     style="font-style:normal;font-variant:normal;font-weight:normal;font-stretch:normal;font-size:3.175px;font-family:sans-serif;-inkscape-font-specification:sans-serif;text-align:start;text-anchor:start;fill:#000000;fill-opacity:1;stroke:#000000;stroke-width:0.0499999;stroke-dasharray:none;stroke-opacity:1"
     x="289.04892"
     y="249.45898"
     id="text10754"><tspan
       id="tspan10752"
       style="font-style:normal;font-variant:normal;font-weight:normal;font-stretch:normal;font-family:sans-serif;-inkscape-font-specification:sans-serif;text-align:start;text-anchor:start;stroke-width:0.05"
       x="289.04892"
       y="249.45898">DRAWING TITLE</tspan><tspan
       style="font-style:normal;font-variant:normal;font-weight:normal;font-stretch:normal;font-family:sans-serif;-inkscape-font-specification:sans-serif;text-align:start;text-anchor:start;stroke-width:0.05"
       x="289.04892"
       y="253.42773"
       id="tspan10756" /></text>
  <text
     style="font-style:normal;font-variant:normal;font-weight:normal;font-stretch:normal;font-size:3.175px;font-family:sans-serif;-inkscape-font-specification:sans-serif;text-align:start;text-anchor:start;fill:#000000;fill-opacity:1;stroke:#000000;stroke-width:0.0499999;stroke-dasharray:none;stroke-opacity:1"
     x="289.12192"
     y="263.3396"
     id="text10760"><tspan
       id="tspan10758"
       style="font-style:normal;font-variant:normal;font-weight:normal;font-stretch:normal;font-family:sans-serif;-inkscape-font-specification:sans-serif;text-align:start;text-anchor:start;stroke-width:0.05"
       x="289.12192"
       y="263.3396">SIZE</tspan><tspan
       style="font-style:normal;font-variant:normal;font-weight:normal;font-stretch:normal;font-family:sans-serif;-inkscape-font-specification:sans-serif;text-align:start;text-anchor:start;stroke-width:0.05"
       x="289.12192"
       y="267.30835"
       id="tspan10762" /></text>
  <text
     style="font-style:normal;font-variant:normal;font-weight:normal;font-stretch:normal;font-size:3.175px;font-family:sans-serif;-inkscape-font-specification:sans-serif;text-align:start;text-anchor:start;fill:#000000;fill-opacity:1;stroke:#000000;stroke-width:0.0499999;stroke-dasharray:none;stroke-opacity:1"
     x="330.96259"
     y="263.3396"
     id="text10766"><tspan
       id="tspan10764"
       style="font-style:normal;font-variant:normal;font-weight:normal;font-stretch:normal;font-family:sans-serif;-inkscape-font-specification:sans-serif;text-align:start;text-anchor:start;stroke-width:0.05"
       x="330.96259"
       y="263.3396">DRAWING NUMBER</tspan></text>
  <text
     style="font-style:normal;font-variant:normal;font-weight:normal;font-stretch:normal;font-size:3.175px;font-family:sans-serif;-inkscape-font-specification:sans-serif;text-align:start;text-anchor:start;fill:#000000;fill-opacity:1;stroke:#000000;stroke-width:0.0499999;stroke-dasharray:none;stroke-opacity:1"
     x="391.36127"
     y="263.25034"
     id="text10770"><tspan
       id="tspan10768"
       style="font-style:normal;font-variant:normal;font-weight:normal;font-stretch:normal;font-family:sans-serif;-inkscape-font-specification:sans-serif;text-align:start;text-anchor:start;stroke-width:0.05"
       x="391.36127"
       y="263.25034">REV</tspan></text>
  <text
     style="font-style:normal;font-variant:normal;font-weight:normal;font-stretch:normal;font-size:3.175px;font-family:sans-serif;-inkscape-font-specification:sans-serif;text-align:start;text-anchor:start;fill:#000000;fill-opacity:1;stroke:#000000;stroke-width:0.0499999;stroke-dasharray:none;stroke-opacity:1"
     x="289.396"
     y="277.3981"
     id="text10774"><tspan
       id="tspan10772"
       style="font-style:normal;font-variant:normal;font-weight:normal;font-stretch:normal;font-family:sans-serif;-inkscape-font-specification:sans-serif;text-align:start;text-anchor:start;stroke-width:0.05"
       x="289.396"
       y="277.3981">SCALE</tspan></text>
  <text
     style="font-style:normal;font-variant:normal;font-weight:normal;font-stretch:normal;font-size:6.35px;font-family:sans-serif;-inkscape-font-specification:sans-serif;text-align:start;text-anchor:start;fill:#000000;fill-opacity:1;stroke:#000000;stroke-width:0.0999998;stroke-dasharray:none;stroke-opacity:1"
     x="288.99396"
     y="269.87848"
     id="text10778"
     freecad:editable="pages_size"><tspan
       id="tspan10776"
       style="font-style:normal;font-variant:normal;font-weight:normal;font-stretch:normal;font-family:sans-serif;-inkscape-font-specification:sans-serif;text-align:start;text-anchor:start;stroke-width:0.1"
       x="288.99396"
       y="269.87848">A3</tspan></text>
  <text
     style="font-style:normal;font-variant:normal;font-weight:normal;font-stretch:normal;font-size:3.175px;font-family:sans-serif;-inkscape-font-specification:sans-serif;text-align:start;text-anchor:start;fill:#000000;fill-opacity:1;stroke:#000000;stroke-width:0.0499999;stroke-dasharray:none;stroke-opacity:1"
     x="330.9697"
     y="277.12601"
     id="text10782"><tspan
       id="tspan10780"
       style="font-style:normal;font-variant:normal;font-weight:normal;font-stretch:normal;font-family:sans-serif;-inkscape-font-specification:sans-serif;text-align:start;text-anchor:start;stroke-width:0.05"
       x="330.9697"
       y="277.12601">WEIGHT (kg)</tspan></text>
  <text
     style="font-style:normal;font-variant:normal;font-weight:normal;font-stretch:normal;font-size:3.175px;font-family:sans-serif;-inkscape-font-specification:sans-serif;text-align:start;text-anchor:start;fill:#000000;fill-opacity:1;stroke:#000000;stroke-width:0.0499999;stroke-dasharray:none;stroke-opacity:1"
     x="391.50729"
     y="277.3981"
     id="text10786"><tspan
       id="tspan10784"
       style="font-style:normal;font-variant:normal;font-weight:normal;font-stretch:normal;font-family:sans-serif;-inkscape-font-specification:sans-serif;text-align:start;text-anchor:start;stroke-width:0.05"
       x="391.50729"
       y="277.3981">SHEET</tspan></text>
  <text
     style="font-style:normal;font-variant:normal;font-weight:normal;font-stretch:normal;font-size:3.175px;font-family:sans-serif;-inkscape-font-specification:sans-serif;text-align:start;text-anchor:start;fill:#000000;fill-opacity:1;stroke:#000000;stroke-width:0.0499999;stroke-dasharray:none;stroke-opacity:1"
     x="313.46271"
     y="235.07683"
     id="text10748"><tspan
       id="tspan10746"
       style="font-style:normal;font-variant:normal;font-weight:normal;font-stretch:normal;font-size:6.35px;font-family:sans-serif;-inkscape-font-specification:sans-serif;text-align:start;text-anchor:start;stroke-width:0.05"
       x="313.46271"
       y="235.07683">OPEN LAB AUTOMATA</tspan><tspan
       style="font-style:normal;font-variant:normal;font-weight:normal;font-stretch:normal;font-family:sans-serif;-inkscape-font-specification:sans-serif;text-align:start;text-anchor:start;stroke-width:0.05"
       x="313.46271"
       y="240.12547"
       id="tspan10750" /></text>
  <text
     style="font-style:normal;font-variant:normal;font-weight:normal;font-stretch:normal;font-size:4.58611px;font-family:sans-serif;-inkscape-font-specification:sans-serif;text-align:start;text-anchor:start;fill:#000000;fill-opacity:1;stroke:#000000;stroke-width:0.0499999;stroke-dasharray:none;stroke-opacity:1"
     x="309.43066"
     y="240.45255"
     id="text11289"><tspan
       id="tspan11287"
       style="font-style:normal;font-variant:normal;font-weight:normal;font-stretch:normal;font-size:4.58611px;font-family:sans-serif;-inkscape-font-specification:sans-serif;text-align:start;text-anchor:start;stroke-width:0.05"
       x="309.43066"
       y="240.45255">https:/docs.openlabautomata.xyz/</tspan></text>
  <text
     style="font-style:normal;font-variant:normal;font-weight:normal;font-stretch:normal;font-size:3.175px;font-family:sans-serif;-inkscape-font-specification:sans-serif;text-align:start;text-anchor:start;fill:#000000;fill-opacity:1;stroke:#000000;stroke-width:0.0499999;stroke-dasharray:none;stroke-opacity:1"
     x="265.60654"
     y="256.362"
     id="text2338"
     index:editable="dd-mm-aa"
     freecad:editable="d_date"><tspan
       style="font-style:normal;font-variant:normal;font-weight:normal;font-stretch:normal;font-family:sans-serif;-inkscape-font-specification:sans-serif;text-align:start;text-anchor:start;stroke-width:0.05"
       x="265.60654"
       y="256.362"
       id="tspan2336">XX/XX/XX</tspan></text>
  <text
     style="font-style:normal;font-variant:normal;font-weight:normal;font-stretch:normal;font-size:3.175px;font-family:sans-serif;-inkscape-font-specification:sans-serif;text-align:start;text-anchor:start;fill:#000000;fill-opacity:1;stroke:#000000;stroke-width:0.0499999;stroke-dasharray:none;stroke-opacity:1"
     x="265.60654"
     y="270.3887"
     id="text2350"
     freecad:editable="c_date"><tspan
       style="font-style:normal;font-variant:normal;font-weight:normal;font-stretch:normal;font-family:sans-serif;-inkscape-font-specification:sans-serif;text-align:start;text-anchor:start;stroke-width:0.05"
       x="265.60654"
       y="270.3887"
       id="tspan2348">XX/XX/XX</tspan></text>
  <text
     style="font-style:normal;font-variant:normal;font-weight:normal;font-stretch:normal;font-size:3.175px;font-family:sans-serif;-inkscape-font-specification:sans-serif;text-align:start;text-anchor:start;fill:#000000;fill-opacity:1;stroke:#000000;stroke-width:0.0499999;stroke-dasharray:none;stroke-opacity:1"
     x="222.38533"
     y="284.36545"
     id="text2356"
     freecad:editable="designer"><tspan
       id="tspan2354"
       style="font-style:normal;font-variant:normal;font-weight:normal;font-stretch:normal;font-family:sans-serif;-inkscape-font-specification:sans-serif;text-align:start;text-anchor:start;stroke-width:0.05"
       x="222.38533"
       y="284.36545">name</tspan></text>
  <text
     style="font-style:normal;font-variant:normal;font-weight:normal;font-stretch:normal;font-size:3.175px;font-family:sans-serif;-inkscape-font-specification:sans-serif;text-align:start;text-anchor:start;fill:#000000;fill-opacity:1;stroke:#000000;stroke-width:0.0499999;stroke-dasharray:none;stroke-opacity:1"
     x="265.60654"
     y="284.36469"
     id="text2362"
     freecad:editable="des_date"><tspan
       style="font-style:normal;font-variant:normal;font-weight:normal;font-stretch:normal;font-family:sans-serif;-inkscape-font-specification:sans-serif;text-align:start;text-anchor:start;stroke-width:0.05"
       x="265.60654"
       y="284.36469"
       id="tspan2360">XX/XX/XX</tspan></text>
  <rect
     style="fill:none;stroke:#000000;stroke-width:0.529167;stroke-dasharray:none;stroke-opacity:1;paint-order:fill markers stroke;stop-color:#000000"
     id="rect1039"
     width="124.5996"
     height="19.599609"
     x="285.0058"
     y="226.22382" />
  <rect
     style="fill:none;stroke:#000000;stroke-width:0.529167;stroke-dasharray:none;stroke-opacity:1;paint-order:fill markers stroke;stop-color:#000000"
     id="rect1931"
     width="64.599998"
     height="19.599609"
     x="-285.0058"
     y="226.22382"
     transform="scale(-1,1)" />
  <rect
     style="fill:none;stroke:#000000;stroke-width:0.529167;stroke-dasharray:none;stroke-opacity:1;paint-order:fill markers stroke;stop-color:#000000"
     id="rect1957"
     width="124.59418"
     height="13.593994"
     x="285.01123"
     y="273.01141" />
  <rect
     style="fill:none;stroke:#000000;stroke-width:0.529167;stroke-dasharray:none;stroke-opacity:1;paint-order:fill markers stroke;stop-color:#000000"
     id="rect1959"
     width="64.597191"
     height="13.593994"
     x="-285.00299"
     y="273.01141"
     transform="scale(-1,1)" />
  <rect
     style="fill:none;stroke:#000000;stroke-width:0.529167;stroke-dasharray:none;stroke-opacity:1;paint-order:fill markers stroke;stop-color:#000000"
     id="rect2182"
     width="124.59418"
     height="13.593994"
     x="285.01123"
     y="259.41742" />
  <rect
     style="fill:none;stroke:#000000;stroke-width:0.529167;stroke-dasharray:none;stroke-opacity:1;paint-order:fill markers stroke;stop-color:#000000"
     id="rect2184"
     width="64.597191"
     height="13.593994"
     x="-285.00299"
     y="259.41742"
     transform="scale(-1,1)" />
  <rect
     style="fill:none;stroke:#000000;stroke-width:0.529167;stroke-dasharray:none;stroke-opacity:1;paint-order:fill markers stroke;stop-color:#000000"
     id="rect2186"
     width="124.59418"
     height="13.593994"
     x="285.01123"
     y="245.82343" />
  <rect
     style="fill:none;stroke:#000000;stroke-width:0.529167;stroke-dasharray:none;stroke-opacity:1;paint-order:fill markers stroke;stop-color:#000000"
     id="rect2188"
     width="64.597191"
     height="13.593994"
     x="-285.00299"
     y="245.82343"
     transform="scale(-1,1)" />
  <text
     style="font-style:normal;font-variant:normal;font-weight:normal;font-stretch:normal;font-size:6.35px;font-family:sans-serif;-inkscape-font-specification:sans-serif;text-align:start;text-anchor:start;fill:#000000;fill-opacity:1;stroke:#000000;stroke-width:0.0499999;stroke-dasharray:none;stroke-opacity:1"
     x="289.21875"
     y="256.362"
     id="text2087"
     freecad:editable="title"><tspan
       style="font-style:normal;font-variant:normal;font-weight:normal;font-stretch:normal;font-size:6.35px;font-family:sans-serif;-inkscape-font-specification:sans-serif;text-align:start;text-anchor:start;stroke-width:0.05"
       x="289.21875"
       y="256.362"
       id="tspan2085">title</tspan></text>
  <text
     style="font-style:normal;font-variant:normal;font-weight:normal;font-stretch:normal;font-size:6.35px;font-family:sans-serif;-inkscape-font-specification:sans-serif;text-align:start;text-anchor:start;fill:#000000;fill-opacity:1;stroke:#000000;stroke-width:0.0999998;stroke-dasharray:none;stroke-opacity:1"
     x="289.14636"
     y="284.00522"
     id="text2182"
     freecad:editable="scale"><tspan
       id="tspan2180"
       style="font-style:normal;font-variant:normal;font-weight:normal;font-stretch:normal;font-family:sans-serif;-inkscape-font-specification:sans-serif;text-align:start;text-anchor:start;stroke-width:0.1"
       x="289.14636"
       y="284.00522">1:1</tspan></text>
  <text
     style="font-style:normal;font-variant:normal;font-weight:normal;font-stretch:normal;font-size:6.35px;font-family:sans-serif;-inkscape-font-specification:sans-serif;text-align:start;text-anchor:start;fill:#000000;fill-opacity:1;stroke:#000000;stroke-width:0.0999998;stroke-dasharray:none;stroke-opacity:1"
     x="330.7558"
     y="269.87848"
     id="text2466"
     freecad:editable="num"><tspan
       id="tspan2464"
       style="font-style:normal;font-variant:normal;font-weight:normal;font-stretch:normal;font-family:sans-serif;-inkscape-font-specification:sans-serif;text-align:start;text-anchor:start;stroke-width:0.1"
       x="330.7558"
       y="269.87848">num</tspan></text>
  <text
     style="font-style:normal;font-variant:normal;font-weight:normal;font-stretch:normal;font-size:6.35px;font-family:sans-serif;-inkscape-font-specification:sans-serif;text-align:start;text-anchor:start;fill:#000000;fill-opacity:1;stroke:#000000;stroke-width:0.0999998;stroke-dasharray:none;stroke-opacity:1"
     x="330.72165"
     y="284.00522"
     id="text2470"
     freecad:editable="weight"><tspan
       id="tspan2468"
       style="font-style:normal;font-variant:normal;font-weight:normal;font-stretch:normal;font-family:sans-serif;-inkscape-font-specification:sans-serif;text-align:start;text-anchor:start;stroke-width:0.1"
       x="330.72165"
       y="284.00522">0.0</tspan></text>
  <text
     style="font-style:normal;font-variant:normal;font-weight:normal;font-stretch:normal;font-size:6.35px;font-family:sans-serif;-inkscape-font-specification:sans-serif;text-align:start;text-anchor:start;fill:#000000;fill-opacity:1;stroke:#000000;stroke-width:0.0999998;stroke-dasharray:none;stroke-opacity:1"
     x="391.15448"
     y="269.87848"
     id="text2474"
     freecad:editable="rev"><tspan
       id="tspan2472"
       style="font-style:normal;font-variant:normal;font-weight:normal;font-stretch:normal;font-family:sans-serif;-inkscape-font-specification:sans-serif;text-align:start;text-anchor:start;stroke-width:0.1"
       x="391.15448"
       y="269.87848">rev</tspan></text>
  <text
     style="font-style:normal;font-variant:normal;font-weight:normal;font-stretch:normal;font-size:6.35px;font-family:sans-serif;-inkscape-font-specification:sans-serif;text-align:start;text-anchor:start;fill:#000000;fill-opacity:1;stroke:#000000;stroke-width:0.0999998;stroke-dasharray:none;stroke-opacity:1"
     x="391.37036"
     y="284.00522"
     id="text2478"
     freecad:editable="sheet"><tspan
       id="tspan2476"
       style="font-style:normal;font-variant:normal;font-weight:normal;font-stretch:normal;font-family:sans-serif;-inkscape-font-specification:sans-serif;text-align:start;text-anchor:start;stroke-width:0.1"
       x="391.37036"
       y="284.00522">sheet</tspan></text>
  <image
     width="59.404388"
     height="19.070429"
     preserveAspectRatio="none"
     xlink:href="data:image/png;base64,iVBORw0KGgoAAAANSUhEUgAAAm8AAADICAYAAAC+sAb3AAAACXBIWXMAAC4jAAAuIwF4pT92AAAg AElEQVR4nO3deXzU1bk/8M9zvjPJJAFC2CGTKgJVEcUsIFVri91ubdVqJYJVxKWotagIRGtrU369 dQkgKGrd6r5AuGr1tlpvb0VbiwJZRHGpqOhNAghICJBMlvmez++PhAoCyewzSZ736+J9vdLvOefJ MjPP93zPeQ6glFJKKaWUUkoppZRSSimllFJKKaWUUkoppZRSSimllFJKKaWUUkoppZRSSimllFJK KaWUUkoppZRSSimllFJKKaWUUkoppZRSSimllFJKKaWUUkoppZRSSimllFJKKaWUUkoppZRSSiml lFJKKaWUUkoppZRSSimllFJKKaWUUkoppZRSSimllFJKKaWUUkoppZRSSimllFJKKaWUUkoppZRS SimllFJKKaWUUkoppZRSSimllFJKKaWUUkoppZRSSimllFJKKaWUUkoppZRSSimllFJKKaWUUkop pZRSSqnUd83ER7424/CHfMmOQymllFLtTLIDUKlr1gmPjxXIn3IGex6ZNfqF9GTHo5RSSilAkh1A b1JxLzNNzp4sa91+HpM2sC1osiE22wFgKVmOsI1AKwUWVnbS2J2Wsi3TyWhM34LGMVdJS6JiLTny D33bstP+AWA8CYrg6fqtwQse/uSi5kTFoJRSSqkDafIWF5Q1TzSP9DrmWIo9DpZHQ2QMBEMB5ADo E0ZnFuAuQOohqIXFBwDfhchbTkvwrfHT+26NdfSlKDW7Jo66j5SLRb74GyFR7tYPnL70w9MSlkQq pZRSan+avMXA+nKmtaJ1NK17KoDJIjiBkKECOIjfz5gA2gT4xAKvieAVC75a+E5GrcwXG03H1xQ9 OlMEv4fIfo/VSRCCp3fqDJxSSimVNJq8RWjlSnr6bWn+mhieA5jvAPwq2pO1ZGoB+BYof3Jp/3vC tKw30Z7khezaokfyaeRVQPoe6hrSlrv1g3UGTimllEoCTd7CwFKaqiNbx8G450NkqhC5kJTd9BEE 5B3SPsGGjCVFl0lbVw1mj31gAPqk/wPA2M6ua5+B43/t3OpO1xk4pZRSKrFSNfFIKRteYPraJ5um VR/d/Dc4tlJE5gmQl8KJGwB4AI4XSGHhTARDuF7YJ+0edJG4AYAIRCBT+g92HtZdqEoppVRi6cxb J954nP3SvIEZQrmagpHobj8v4p004ztlXLHs6OrS2RMeu5rA4n03KHTZPUEBVtRvC16oM3BKKaVU YnSvZCRBXnp0S9bg9H6XADIPgD/Z8USo0bX26xOmZVV3deE1RQ+fJOK8BEFWJAORXO7WD7pQ18Ap pZRS8afJ2z5WrqQn+7PAOTDm/4Ecje768yEsiJkF0zL+0NWls/IfHOx4PWsEcnjEwxEE7Iqd26zO wCmllFJxlsprthKqurz1+OzPmv8CkadAjkF3TdwAQvBw/vu+h7q6cGbhvV6P13N/NIkb0LEGTkyx roFTSiml4s+T7ACSreJ5ZppA8y9Idw4EGcmOJ3p8K032XC3zM7qs9ZZpMuaScobELE2VYidnO2Yc /tAMnYHrpWZtSM/JbPDZXQHjy+rX+lnWMwHMnx9V3UGlVALMWOnLGdo3nS2OpHtM22cLj2sCJKxS UypxuuvsUkxUPdVYRHHuE2F+smOJCbLeGvuNouI+b3d16TUTHz1VKC9CkBb7MLjcrd954dIPr9I1 cL3A4aUbfcHGz88WMcUEjodgMIA0EDsBfgTBX9qs55HPFo7fmOxYlVJfGD6zItP0Nz825BSKjBdg MEEvIPUgPgTwF9fikc2LCj5Ndqxqf70yeVtZSk+/owM/FzG/BRjOUVWpzBXiwvypGU90deHs8Y/k Mk1WichX4hFIxy7U5fXbghfpDFzPlltSMdnQ3Eng6M52KhPYQ2CxNyPnpk/mj9S/CaWSbPi8iu86 IneA8tVOqwwQuwi7qDbTdwvmj2tNYIiqE70ueVv9yK6BnnTP70VkSrJjiSny9wVTM3/W1WWlKPU0 TBz1kkBOjX9IOgPXk/nnVVwqYpYC8IXciPyfgATO2V528u74RaaU6oy/pPLnAlkEhPbkhQRF8N/N e9J+su3ucXviHJ4KQa/asFC5rOVoT7r3FRE5J9mxxJIQq53WjHmhXNswcfSvQJkc75jaSbEnp//D Mw5/KPQPd9UtjJhbebqIuQvhJG4ACPmOj5kPoXRlr19vq1Qy5M6rmCKU2xBi4ga0b0oDcIavT+v9 AHvdpE8q6jXJW9VTgW+Jsa+IYBx60owjud2F/GT8dGns6tKrJz7yQyF+EU4h3miIQCAytX0X6h26 C7WHGDDrjX6OyO0I481/r46/ibPymrN71A2UUt1B9hX/yBGYRRB4I2lPoDiv5M0zYx2XCl+vSN6q ljVNheA5EEOSHUuMtbnEFUVTfR91deGsEx73G5j747FBoWtS7AzIeUhn4HqGDJ/3bAKHR9peQENi dgxDUkqFoE/frHNFkBdpewEMgat09i35evyji8qnGmdS5C7ped8rSS6ZMC3j6a4unO2/LYOWT0Aw LBGBfVnHTN+0/oMdM8tzR+9bA1e60pPT3DerD00W25gJB5mEZMEYn1i3P0QMBSKWOWyfmQoI0QS4 IE298ZjdrjW7Wlvbdm13s3dg6Zik/vwE5gyRqN+8i/yzV+XWLj6xLiZBKaW6JMTp0T53EdivDblh /ZCtN+Gz2ESlItHTEpr9VC5rvEzE3IGe+H0Srw0IZPw6pDo8IwbPB/H1BETVBSl2BuTYWaNfuKjH HKVVWmrw6TfThgzLGpHmeo8S2JEkDoOYXIAjAAyTAPqDSKMgTbzGSzLNCASwgGl/JxUAMPs8zxYA cCACwBIGwaAvzTT7sbtJSqq2gfiQYt+HlfVBx6ne8rFnA1YkYCdY6UqPBHhU1P0QImnp4wBo8qZU 4oyPvgvxpbe0HQlo8pZMPS+p6VD5VONMEXMneuD3SHCzeOWCkVOly5IL10x87Ecg5iRqnVtn9s7A OTnbzazR3XsGbvjMikynn9wjARzDIfJVsejTnkdLe8KFL+XUsnehJRFJUWSBeAD06fg3BIJjBOZM GMBLC//I1m0oqV4Na19yDf62uazg/XgU2PTvSvfCg35R370LxHUlJzZRqV5rSrmTN3L0UML4W/Z4 3u0OOyFzZlZk+/piuOOBt/bWoi5rcsaSCAbEqCN97SZZj0tsAKC6vOk8UpaiJ35/RBvJnxb+OLPL oolXHf/EGIG9F5Jqaxul2DOgvztr9B0Xd9cEzsny+cS0XgCkxu4XAQYD/CGM/NADtOSVVK8jqp5A W9rjtYvH7Uh2fEpFpXSlZ3BT1qA0MUeD5igRjgXkaABjCAwQ2DRPRvN4AO8nO1QAQCnNcFT6PI08 whVzjBFzlMCOJeRIgH4A2bBSDuAnyQ5VdU89LrmpWh74Nil/AJiEhfkJIPaWoqlZf+7qstn+2zLo tU8AqbdJo30GTs5zcvo73X0GLkWlA5gowER6Wv4zr6T6MdBzW82CY7vc2NKV2sa0oD8bu6NNWEnQ 0G2INh7Vswz+2co+6Vn9hwN2lBgZS+JoAY9CQMZAMBRAx93Sl/4CibaEBwsAU8qdQSNHDPUh3U+a sQI5UgRjEageA5hRMEhzOgIE9j7+kH9/JfG4E5Coj4GkcGcsolGR61HJ27plLeNcuE8izNpT3QWJ /+nXL/N3IVwqGDG4TIAJcQ8qKlLsyeneM3CpTkT6AvwZ0Ha+f17lfU3Nbb/dsXTSrog7vK+oTeZV /QtAdOveBJZOWkIfGanU5r+u4lih+SvIARDxgtgv2UlF/sNH3QdIMYgskwJLU7pEvA3B8Cg7aW5u 4wexCUhFKsUep0Vu9SO7Blrh04AMTnYscUF8KrQXjTlNukxyrpnw2HmAXJ6IsKLRUfPrPCen/yOl Y8t75kxpqhD0E5G5WRnp1XlzKr8XTVc08mcy6omDt+vKxtdG2YfqQVyRNEIGR1qDLBlEMECAPqmw pjgUFOnyqU0IKrZnF+pmhSTrEclbxb30enyeBwh+NdmxxEmLY3BxwbSsTV1dOKfwyaMEuBNgt5hV bT92RUbswq6ecsZsiuMRcMxz/nmVJUBpRK//PS07V0Ak4l2iJEhicaTtlVKRCQbwFIAtkbYnxLp0 7sR8sTEMS0WgRyRv0q95nkB+lOw44kEAC/I344szXu7q2lknPN7PmuCTEPRPRGwx0CaChcEd9d9Z /O6luqg+YZgOyC3+eWfchinlTritdy6ZvJMuZxMIRjS8yAt1DfapiNoqpSK2ZWnBNlrOI+lG1oN9 ftOCZ1fENioViW4xO9OZymVNkyC4MdlxhIjt/+EugfkItDWAbCfk39vbRayA0h8iQwAeRsi7De/5 FobQt3hob4NIftyijynusMDlt6+Zrm8ESSACIeWqvMNGf14D/Dbc9nWL8p/Ou676OpK3dpQx6VLH o9Y36PFdiPuOTs4Cc6V6udqFhU/kzq08DOB8EQnp5o0EIfIK2povAebrrFsK6NbJW/VD9f0p8gek 9AYFaSTtegFWwpjXDWzl8cWZMS9MevXERy8G5JJY9xsX5BpHMHXxmukbkx1Kb9a+5hA3+udWrq9d WPhsmK1Zcytu88+peg+GSwk5orN1PwSaxMi9bA38sm5BQSDa2JVSEWPdwsLfjSipetuBLAE4stOL gUZA7qoNbP41lvaQ4uo9QLdO3piZ8SuAY5Mdx5cJYC3wqhEs87j2xWOnZdTGo2DqXtdMeOJ4oV2U 6ktmSVCA37c0+q67+93ilC+m2Ut4IbI098rVf6+764TPw21cu6jgxUEl7+f7JDCV1k6FmAkC9gUA Ei7ADQK8GDTOH7bcevw7sQ9fKRWJTWUFz+dcV/FqJs00Ic6FoEjai4CDhCuC90m+aMU+sGnBhH8l O161v26bvFUua5oE8Opkx/ElO0g+1gZz9wlTfQnZSn3FsU/kiNgnAWQnYrzIcYeBufq2tec/nuxI 1P5EkIss728AzIqk/fayo3YDuL/9HyX7+rf79xGvqduzcY/eqSuVuupvLWqoB+4BcA9A8c9+J4c+ R+rS3N2Yn4Dj9lTEumXy9sIdTIcEFiN14t9D2Dtc4dKJ5/aJeCdPuEpRanb57B0Ajk7UmJEgsd4S 0+6oOH99smNRhzRj6Nx1t322cHyUj7KFDbegXqvvKtXdCGsXQzeOdROpkvyEZfjQ5umEnJDsOAgE DbCszfKGidOyahI9/s4Jo35uwPNStoglaSl4uLXRd7U+Jv0Sso0iywTYCkg9wd2E7J/zEOkC2x/A YBHxAxxNyGEABkqMd4oL0CdNgpcC+GUs+1VKKRV73S55e+Pxz/uR/A0kkuO9Y+oT0M7Kn5r1p2QM PrvokYmA3JR655Z2IBtJXJu99qMH5uvupAOJNLk77eWb7ytqCqfZgFkb+mV4d42FI2cKcAEEubGL yUxD6cpSzJ8cWQkQpZRSCdHtkrd0b+ZsItrjPaJiSf6xxbT99MRzs5MyxTwr/8HBFHlSBFnJGL8r BN6zrr3gjqoZlcmOpafZsXTMLgBvAHhj+MyK3zr95UqB/BIxWPNI8nB/44DCWmB11IEqpZSKm26V vL3x5J6hBK8EkjbrFgTMr3a9l7Zo8vzMpMxOTEG543hb7hNgVDLG70x7LSD8VxvsFXdVzQh756IK T8es3YLhcypf9jjyXwAOj6Y/EYgVeyp6UPKWc11Fti+I4Y4xQy04zECGADYHkL6A9MeXy5uQ9YB8 DrLWitloPfxgy80F25IUfmxMoeM/rOoYGJkgIseQdiQgQ4Tst/cSiuwS4nMI6iDYAGvWB22wavOi ou3JDF31Xrm/WD3QtenDjGuHG8gQGDtAKP1J9hORPhQccKQiiZ1GWG9p6iDup1bw0eZbi2qAqI/z SzndKnlLd5zLCSTl7FKB7HZpLymamp7UorK5E5vngHJmqi1zI9kEml9mr91whz4mTazNiworR1z7 5tmOY1+O9nQNoT0xlOuGzaka6zES0rUHjsE9NZ9+uAIriiOs8r6/QSWv9U1D+ghDZ5wAR1PkKMCO AuQIIbLpwAHhOP9eatHJSoO9l4jAkHRctOWVVNeSdhWF/9tK+9K2BRMTtikpUv7ZqzKYlnGqIacA 1f9ByiABHJBf5Kv73APLv/8DgABh6TGmNa+k6m0S/+1aW7550X9/kKoFWgkaj5gp/nnVmxM7Lg6T iPMCGeWfV31pLOKoXZD/QKjX+udWHgcxEyMZR8g9NQsLlkXS9mCGz6zItP3coR44Y8U4Y4UYS+FY AEeIi35C14GIEaEAHf/X8Xd7sI9A6fhDNkKQhh4imFdStZ3AP0n+la774qbbJiZ8fXo8pFgKcGjr HmWWm968EUlJ3tgQhD1n4rl9/jfxY3/hqsJHJjuO+TOAjGTGcRAbXddOv6PywteSHUii+GevHyDe 1mhmFxuCO+2IcNe8dSbvuuq5IBdE2c0nNWXPjerqQ9pfUvlzgSyNZAASn9ZuazgKD09ujqT90Lnr hjjGnWQoJ0HsJIF8lZAhAsZ9/SeBPQBfEZg/1Ox0/4z7ilLqpAj/7FUD6KRfYUQuItBp4eQwtRJY aS0WblqY/7d41K0cfn1loWPNmkT8HnsSEqxdUBDyz8xfUj1PwLIIh/ukpqyg06K+nRk+p2KQEZwA wSQDmUiRo0DmhnrSQ7TaCw7zr0LcVrOg8B+JGDNeus3Mm+trmQ5iUKLHFZHdQpw18dw+KxM99r5+ nv/UCMcJPoQUStzai+7yzzbQcukd63/6WbLj6e0CbLw3A5k3AMiJopuc4XNOH7B50fyUe1w2fE5l ocfI7yHusSTS/303DiDy2Y/wtBcxlR8SOM3fXz6WeVU312xreDLSRDRmZqz05Q3K/hkNrjcdN7gx vjNPE+B7xuDbeSXVL7OtYk7t4qK3YzuE6qlySyonGcpSCI4h4dt7U9H+n8TNIQmQBciPCJ6ed131 32wbS+puK1iXsABiqFvc4VTcS68AP0XiZwpbrZUZx5+bkdTEbWbhvV6vJ/gHAIclM479EK0C/rrR Bs6+XRO3lLC97OTdBP4WVSdEpqFnQIxCiinHyOEQTAC+ePNPFgGNQEYTeMA/pN+qvOuqTklWLCPm VRTkDc7+OwwWSZyfTAjgAPgOvM4//SXV8zClPCEzJqp7E4vREBQByEj2axcARMQB+V3x4J/+kqrr uuPfcbdI3kz/5q+RPC6hgxIW4A2FU9OfSei4B9HHyfwlge8lO469CNTCyumL107/z/sqLwv5sdG6 R5m1qpwpM3PYQ1VE1VrgteL2jVEsPZ4IRCD5IP6aV1K1yD97VeL+vktLjX9exaVGzN87ktqEEbAv yFv9I0cvGzBrQ7+uWyiVegTIAnGz//BRDw8vrchMdjzh6BbJmwAz0H7Hl0hPfCgZSxI85gGumvDY f5D4RSrcrbTjSsO2ExdXnv8/4bSqXNZytJvW/EoGm4vjFZkCCGyKtg/jUD+Mw5cG4Frx+v7in70q drX3DqW01PibzrgVMPe0PwpKvPbEFedkZez6c+4vVg9MRgxKRUsEIiLnOwF5AlPWH7CDNVWlfPJW 8TwzLfHjRI4pwL8a3Zari4slJrvhInVl/hOHOcCDOMiW6CRoI+Xm4I6d379t7cUh79YhKZXLm4qN 2NcgKILIee3n06t4oOXOZMfQy50iXt8r/tmVo+M2wjdXevICZywCZI5Iwm9qD0DKSeJ6nxlU8r7O 2Krui3Jm3sjWm9FNPp9SPnkzgcD3RZDImYBWF7ji6z/pX5/AMQ8wBeWO12PvgCS1IPFeWwkUL1l7 /g1LP7wq5IPGV5Uzo2p5YDEgTxIYAAAkT17/VMAfv1B7NxODYr0qaqPFg78Mn1MVjzWq4p/Q/3eE uSpVZuM7ZuBO8aHpXpTqTlHVPXW8nmaNmFv1w2THEoqUf6GRmJLI4QA8WJTkDQoAsALFrmvkAlpM Bnk/gV2JjoEECb6OIE5asuaCP4bT9u1lzaMy2PxXEblK9n/kndkqPC3GoaoO4phhUfcBT2MsYunV REZ5HMR8NmrE3MoZEM5N0XIa5+YGqmcmOwilouA1IkuHzl2XkqcX7SsV3wD+7Y3HP+8nRhK4i4vb HW+wNHHjdW7p6vN3Lam44JXFa6fPRGtwPIin2zdSxB8BF8I7m9zAtxdXXfBhOG3XLms8s034TwIn 4WA7hEVOj1Wcan+0dnxU7YGgC3d3rOLp5Qoy0LQ0Vo9h/HMrj3MESyRF37cFMAa4acg1a45IdixK RUoEh3mN+/Nkx9GVlHwT2CstLTMfRNQzCaESmLLxZ/fdmqjxwrHkzYs+6bf2w2IC1wGIa2FQAvUC mb5kzQVX31d5WchFZF+4Y0N61fLATY445QCGHuo6A3NKxfPsVjt7uoXSlR5AJkfXiQTaWnXdXKyQ PD93blX0Tw9mVnghcg9EUn0zSU56mud3yQ5CqShdOWDWGyn9Wkvp5I0W30HiarvVuJJ+f4LGish8 zLdL1l6wkMQNIOMyA0fiTQR50uI15z8ZThX1dU83+YcO9b8A4BcAO91gQbCPCTRHdLSSOjR/Y7/T RRDVTkchd23P3t29z/JMISLiiJFF/a+pjurYsrxsmSmCr8UqLgKNIDYS/BfAj8HYLcsgeE7uvOrj Y9WfUokmQF5mhjelnxCl9AkLIvxmgnI3Ari/qFgaEjHYoeSWVH3LiBxF0hHI/7W0tLy+9fZJBxTA rVubvtg/oWUSEMNduKSFyEOukWuXrr0grDfyquWBb7tBPCRAqBsRhLTfBJDU48Z6kpzrKrLFyn9G 2w+Bf2H+5GAsYkolJCiCrQQ+ArBJwK0A6kESIs0gfVZkgECOBJEPkf6xWlcmgL9Pmr1mJ/CbSNrn Xrl6IIz5BRjdKRIkdwvkcRgsQ2va+ppgeiNaGizSt5qczCG+TNeMFcE0iMwQMOK1egLxiPAatJd4 UioqJAjBdiFrIFJLYCsg9UK3BeI0WzBdyPbXrmACiX6x2cxjpgJ4Ivp+4iNlk7dVt9VkAFKQiLFE ZA9d9w+JGOtQcudW/MAAz4BMa/+rI9LSvU15JVWP7jKeGxpuOe7fu19XoNidK4/OCxLfF5HoHz8S 2yxl7u1rL3g0nGbl5evTxmDUPBI3AkgPa0wxOvMWI/7ZNRngtgcgGBttXyKyOhYxpRyRPbtbcdTO JfldPhL2z16VQSftVBG5iiLfjs0aM/nZ0Ln/vPuzhSeFvSxDMr1Xgox4RrXjw+8vbfRc+dnC8RsP dk090FIPvA7g9bx5FbcD5h4C34riQ/BHg+etGbZtwcQtkcYdDpIuhTc6cKKucxjWuLBXRfE5VQUb fXIgYhJzNlzy1LdkpB2xbf64PV1dmHNdRXamlakQ+VUYkwmHwG8N/tnKPtvuntzluMmQsslb2vCB xyFR53iSLxZMy0roi35fw66pPtwYPgDsX89NIJkkLuvruvm4/q3v75vALVwzfePsCY+tAHBhpOO2 n02KVXAx4/YwNyWse4ZD3LbAAwR+iAimRwU4+v3n2PeoM0UXx0fBf13FsWK33gXI12PSIeWVmPST cixC3bBdu/jEAIA/o5Qv+hurzoSRu4Ho1t4KMNgrvhkAwjoQfOjcdVki7uWRjkuCAO6sDWyZh6Wn hVTmp2ZB0UeY9cIP83zD7yF5YYQJXHYavGcAuC+CtmETiHVdPlu3KP/9RIy3V15J5Y8ARJS8kXi/ dmHBbTEOqecRENtCW8lRf2tRQz1wb+6sN/4sPu9zkMgngATISOuTfQKiPXIwTlJ2zZtxTEJm3QDA Uh5L1Fhf5p+9KsOTZh/BIT4c2qs/84S+DC788v/mkuUdb87haz+b9LfB+vpvhbubtKK86WTb1vwG IKcj8ufaQ5paWvMibNurDf7Z+j7+OVXfzyupWiY0FZDYJG4ktjPY9I9Y9NUjzBdbu7DwWVJOAXHQ GavwyEWYWeENp0Wa2ClAFLUehS/Urm24NtTE7d+WntbCYOBnEPw94qFhz4q0rVLRqFs6qbalzZ0C IqrNVwacFKuYYi1lZ95oebwkYrkbub0t2BTxG1TUw3t8vzVA1+VQiHP9s9/8de3i4+v2fsk1XO1Q GgCEtxia+NiFO/OOtTPCuqMoL6czygZmCeV3BKJ9XGtg3eMAvBtlP91WS3rQ075D9CDe3WaQNdhk DxuY0ZfwC91RgD0GlBMgrRNJDEGsF4SKPNsx66T2Ubsgf0PuvOqzDbkSEuZrbX9H5vb3FtYBb4Ta gMKLIv0lk9jhWrkSr0S2hrF28YkB/+yKWfDKGkB8YXcg5uShc9dlfbZwvNYNVAm3dcnEj/NKqn4P 4BeR9kFIym68SdmZt1is3wmJMX+fdP7AhBfABQD/vKofC3hNKNcKkAXH3a8MxF1rLvwcIu+FPCBp QZS3ip0YbuK2+hkOHMPmJ0VkMaJP3NqJJOZ3nIII9M30pb2VF8jecNB/I0d96h+Sva2fDe4QBt8C +Cwg/wnB6QCGxqG6fqsLJuQRV3dUtyD/TSuRfwgAe08iCJ4d6vXDrq8+HGQUB87zgc2LCj6NvD1Q u7jobVKeiWx4ZqVJMGFPUJT6MhfuIwCbI20v5FGxjCeWUjJ5q7iXXgG+kpDBLF5JyDhf4p9XPQaC 34tI6GcTinzjy18iGeob624LXF67Nv28u9Zc+HnIYwKoLG8s9La1/J1ArA+VHxPj/roNAYwIDgNw +MH/yTAB+iQsIOLFzWX5lQkbrxuq2/jh/YRUR9UJ5TuhXuoN2skiEtG6XxK0Yh+MpO0BfYFPRdJO BAJKFMmnUtHZVFb0AYENEXcgMnhQyWspeWZvSiZvNqdxIIGceI9DwKXrror3OF82dO5LWQI+JcDg sBoKTkHp+v02NaTtar0X4AeHakKCINcERSbdvnb6/StQ7IY6HEtpqpcHfip0XgUY81kyEYyMdZ8q fCQCbRY3hFPXr1daUezS2lsiXmcKAIIxeSVVI0K5lAbfinwcrt9UNuFfEbffV98SghMAAB5SSURB VFPwdQIhF+vePw5EdeKHUtERgng90tYE+vja+qRksd6UTN58xttfiLifLSaQPdyTGfpjx5goNV4Z cisj2aFEjMltbDl53y+V/euS3aA9m8CGg3yoBAHe3mgDk5euPj+stWXrHmVW9dHNDxH4PcC4/C5I 6IaFJOvYcXzTlkUFvXbtYTham9JfgKCu6ysPgch0bQhLQkpXeiSKUkkiJmY1FOu2froT7fXxwkbB V2MVh1KRMZG/txGZ1tuWuCcgYUjJ5M1ts8MgiYjNbiy6TCK7o4xQ7rwzzwd4eSRrlkQgYqQU39x/ kfvitTPe2dXQWghyFsnlJJ4n+Xvj2slL1k6fHc4RVwBQ8Twz3fTmlRBMx/6HyscWMXh9eeenMaj4 EpHnahrsrcmOo7vYdve4PQBeirR9x+7xY7u6rn9D/z4gR0c6jrWRzzYcYEWxC/D/ImkqwDDM2hBe DUilYoh0w6qmsC8RCIIcGMt4YiU1d5uKGYwEnL9O4uO4D7KPr1z35jG09nZINAmRnJw3od9lNa/g rn2/+uC/LtkN4K6Of9HZvAnMHjAs7rt9BdKExgEAElLIU32h/cQBWbVH3Bm4ryiuZ+X2OCIv0/Li SDeNGDFdJmWZXvcIiAmrrMj+Y/D2vJKqmCXlDHeJxxeyc+2OPnVAeKVKlIoRS9kSzUyQGCf8ndYJ kJLJm6XNSUSZEEEsajeFJue6imxL+4REV2oAAhqILBhRUlWzqazg+VjFt6+iy3KbqpYHtgJxf6wp 0mKzoclbMry0uxXTdi4pSuqRcN2S2DXRVGlhCJuxDOWwKPcTR14b7iCiCCVL0tJT8sNP9Q5WPDuA kJd6H0hiVF0hxlLysamJxZFPoRAk7ADuPjS3C2K2eDfDAE/551b+FCiNy++QwPZ49Pslkub1xX1t o/oC29dBLqnd1nBWKEdFqQPVpj//sQCtkffALmv0iSNRneiQQtKCZMQziEpFy2PQI58spGTyRon8 UORwCExCzizLLam6nMT0WPYpQKYYuS+v5My/5M2pOgUxLtgqSMixVdIqwcQcgdbLkSDJ9bT8Xk1Z 4Ww8PDni2ke93vz5FkDEx+kJkIVvrux86YSVuO+2TxRjgj3me1Hdj2OkRxaJTsnkDRYJWcRuXcb9 kdHwOZWFhrg1DkVVAQAkToTDUXHoOBGP08SxEVRuV+HaBOFVbdw+qW5h4cvJDqYnYBSz9iT64NhA p8kbxUa1vEIp1a5tR2uPXG+ZkmveeoqvXP9WjrXBpwDEq07MO0Tw/NqyiW/GoW+t+dWdEW0A3oTw 92xrWabHXsVcFItoaLqqTy0Io3i3UqrXScnkjQbBhBxramz8iu9NKXesDd4FYnRc5tzI5bsc7xUN txTUx6F3iCA7AdkbjcMeeVeUDCQIwVtC/tnCrKj75Pi3sUKiSDKUip4lo1gfqJQ6mJRM3gylgQko 9u4YJ26L5XMPG301iKmxflxKoBHg9bWZBXdjvsStngoR/yLJACjWk9A6ez1IGyH1IDYKWEXKa3Dl 1drFx2+CzpomQuSva5EAWho6fe0S4koP+DWSoKSZRKyfVapXScnkjXSbIQlZjhdp7aJO5V5bOckY /g6IdcET+dgS0zctKPhnbPs9CHJwzMM/gDAI9srHeQSsAJ8CPOATmkSrQBo7rmkg2ADgc0C2gKy1 xnxi2PJJUzM+27F00q4khN/rCZAdcWOyGfUfd5q8CbEzPqtkE0wQcJ10nV1XKsZSMnmDSEJKGJD0 x7rPIVe/PdR4gk8AjNlC/I4jjJ5v8/CnW24uiHt5k40P0VeP5iHxHgcgW1psr0w+BNjdvCftuG2D jznIzONvgPm/YcfkTveffumZIi/lIVLffmrBoVnhjtTcTRYmYk/b9hbd2axUjKVm8kbZlpC7TrLz VcPhKi01aU2tDwByRAx7bSU4v7aBCxJVCb8+C31BGRT3vIHg4MEZiagnl5I8wWZ76Eff8xMbjApZ znUV2aRkR/pYU8DPurqGUZQiaW8vKwF+Hk0fsSDAtvpID7UPA4VCa3WTh+o1UjJ5MwxusfAQMa5d dgCRUSsf2uibfNHImNwZ5jadcT0gP4hFXwBAoobkjESXd7Bu4AhjJP5r3oQ7x5wm+khFdSsZluMA RryalTCfdnWNsfwEJopldZb31SwsWBZxB90NxfEab0pWwj8UEabk56/qHlJyZj6YbnYASERhvb79 0kd8NRYdjZhb9W0juDFWGxRIvszm1hOTUpdLWJiggSI67FqpZHKMc0I0r3PSdnlQdrPJ2ggw4ptK Gnwt0rbJYsTZHelsvwjEik1IcfdYIWVQsmNQ3VdKJm/ZGZk7ACSiSKxHPHZCtJ0MuqZiuBE8DMSk 4GwrLG6u/eSj79ctnVQbg/7CJmIS9MbPhJ0tq1SskDwt8rYgjVnf1XXbN77VRMgHkY4D8izMrOhW x1JZG2wGI1+rIUZGxjKeUBCIfCetSMzXXKveIyWTt45HaTUJGczi1Kjaz3ohPcPrPCyC3BhE85kL TKlZWHADVhQnpTYSSRFwcmIGky5nIJRKJUPnrhsJyKRI2wuwW4zvX11euKLYBVkR8Tgiebn9nfMi bZ8MbWyuRxT1UUTkmFjGExJGs7mOubm/WD0wdsGo3iQlkzcAAPFOQsYRfGPdo1siXt+V5xv6a4Lf iT4QvtZiPCduKit4Pvq+Ile1oqkAMIk5FJt4NyHjKBUjHnGvlGhqIAo+qLv56NA2EhArIx4HgND+ dtA1FcOj6SORtpedvBuQyEsHWZ6CKeUJ3bQgwNaIGxOZxnqKYhiO6kVSNnkjpMtHCzGS63qzI7qT 9s+p+j5FSqJb/0KXwB1sa/nu1luO+zjSfmKFLn4EMCFvgEHrvp2IcZSKhREla48UwRXR9EEy5DWs 1rqvMoq1vyKS5/Oax4fOXZeIgtsxIWTET1woHD9i5JGjYxlPVywQ8bpdEQitnBPLeFTvkbLJG8jK hA0lOD/cNkOuWXOEOHhQotixS8gOC/yktiz/mlQ4e3LDC0wXMYl6M9nuzcz6JEFjKRWV3CtXD3To PCZAVDsaXcv/DvXaTbdNrAGxOprxRHCqV4LPdZcZOErk62AF4jG0s2IZT1estR8zmnV6gikjrl2T F8uYVO+QsslbuuOrJhBMxFgCnrm+nANCbjBrQ3q61/MooinUSVYF3Zavb1pQuBxIwFlgIdjd0Hyy EcRk922XiA/yz0pMMWalBOLN8PY7NpK2g0qqRpistOcgiHJzk2zc3Jq9NqwWwBPRjQmIyLd8XvN6 3tzqM1FaGvv3/NKVnuHzKr/uL6laGoNZvqiWUgjsxSPmVZ8UZQwhc4PpGyS6z6ls8XjK4vJ7UT1a ytaZGVcse6qWB6oATIz7YCL9W93mHwF4MJSr8zJ23wQgojcIEi4EDzdLYPb2RSen1Jl/NLwSCTqX TCDxP+JLqS/4PGL+mjev6iXQfXCPI6/U31rU6Y72AbPe6JeRkXaeAW4EOCLaAEgux9IxYdU1bGxu /a9MX9rNIojqxBMRHEbw6bzAGa+78864s6lt10s7l0yO7OZpxkrfsP79h3m9/BpFJkuA3yGQBxIe x30AwLqI46RUR1VsSSTDgM/kza2eWfPphj91dZLFXv7ZNRmud9sxDnEaIcG6Bfk3hdJu6+3Hfuaf V7VJgMMiDhlS7A+c2dZ69ffnbb19UpcFnAEAU8qdQblHDPGlOacC9hw2Bi+tu+uEpBdlVomTsskb AJDyqgjjn7wBHzltwT+FcmHuvOpzQM6K5A2GkN0CXlNTlv9Qqsy27bVuWcs4F/aHCRqOMHg1QWMp 1YHpEJwBcc7oY7Eza15VlQjetMAG0H4u1uyBwwEgciEyAcA3JEbnHxNoAiSUm8P97Fg6aVfmvKp7 APw62hhE4ABysiM4uU9a/x195lW9AeFaWrwLSI013EljAqa1zaX4sjxCjys224gdCpo8CI8Q8iiK HAXQD8Ds3RzafgyygOCRiCJ5Y5BrxSNtEERc5kSAITR8xj9y9BsoqfwjLSpdtm0xNLuN4/XBuD64 zkAaHGbAI0nkC7Yd6wFyO06kWwUgpOQNAETwOqJK3mgAXJCW7j0tr6RqBSxetRJ8X4LOHtdIGxxm OnD6CjgC4CiQ4yiSL8DRANNIoWR6lwD6ntqbpHTy5gj+ZoG5iO9JC01ieOH46X273DXkv75ytLi8 J6I3FuJdC/eCTQuKqiKKMs5csTcAkb9hhqnZRdNrCRpLqQMJ+gtwKoBTDdA+4ey0/w/xeLch+Hzd goINEbX1ZNyBYOCSGJUjAgAIOACC0wA5TUx7/TkPJQhrXXg8BIMeCsQBPO0/k457zS52Z4mLo6OJ q7aRn+Zl40NAoupH2pcEnQjIiWIAg7Q2AEGADmmMGHr2fh8iX27LIwaVvNa3ffdr12jxv2IwNZp4 28eVgQAuh8HlQo8rXgl6YAmKQ1gP9v7ov/Q7EIGQOA6avPUqKf2cvWl3y1oAO+I4hBWRG/KnZK7q 6sLBP1vfR1x5EoLQ18YBIMSCWL67TU5K1cSt4qmmEwCcnajxCLxRVDwgEUWYlUoFAcL+JtLGdTcf /bkIb4xhPAcQgbTflIoPQAYE3og2Ywmiq7V2X1EbReJRLskLIANAWlffF4nB6UFvyBs8aJyXCNkT bYD7ap8lZTogPgi8XVY0EBwXy/FV6kvp5O3ES7N3COQf8eqf5NPHv5O+NIQrxZfVWkYgvJo8ZADk NTWffPiTnUvyU3Jxfnk5HRFZACA9UWMakecSNZZSyUSCBO/cVDah68K8najZWPAoGPpO1aQRORKl jOpzxQUfSdRmtYMREUdMeshJaF3Z+FrA/k88YwqBJm+9TEonbwBgLeP0QS/vtpi2y2W+2K6uzC2p Pp/A5eHUcyPwoeuab9cuKFga6qLZZBhlWy4VwckJHLLZgEktRKxUoojg3Ubh76LuaIW4gTZeBkjS a0F2Rgh/9tbXsqPpY3NZ4XtCvhirmCJi3PHhXG5pbiOZvPd54vABs97ol7TxVcKlfPJGJ/AsgBjX QJM9sO6FJxZnd/lINvfaqvEGuD3UxK39Tlv+FHRw4qbb8rt8HJtMby5r/qq0f7DEc03hfghWPPOO 79NEjadUshBoZJt7cVe7WkO1fUnR5qBriwGJ51KSqBDIycjMirqmnDVyY/smjyRheDNZmxbk/xOQ P8YrnBAMTM/wxmxNpEp9KZ+8FRUPaBAglo8LrJCzC6ZldXlu4IBZb/QTB48CyAmpZ6IFwA21GTvP 2nJzwbYo44yrlQ/R58I+CiCRZ+tRaJ6cH8Jsp1LdXCuBK2oXT1gTy043LyqstGAxGde1wBETgThw x0bbT92tBetALIymAG40RCTsx5DBNpkLSGilPmJMBI6xiKiOoeqeUj55AwBSHgZi8iImgMeOf8/X 9Zb9KeVOZkbanRLCQtD22TbUuCKn1y4ouAXzJydtvUYoWEqTnRG4TUQSUYZlX417mtr+K8FjKpVQ BIIWcl1dWcFj8ei/rqzgbxTnByC3xKP/aIlxok7eAKD2kw9/B0HIx4nFEsmwH0NuWZL/CeBeDqIt TmF1yjiiyVsv0i2St4bA5pUEPoi+J1nX2ua7KpR1bv7DR/8SkJ90dR0JQvByMzBpU1n+X6OPMf4q xwauBeQyJPBxaYenT7m4b0rPSCoVDQJ7BJxZV5a/JJ7j1JWNf6PNMV8j+Pd4jhMJEYlux+leK4pb 6WScSyKsUyliQ4wvM31cuK1qyor+SCNXAmiNQ1Cds7ppoTfpFsnb5ItGNgv4EKKafZOddOTCSefL rq6uzJtXNU0Ev+oonnhIJF0Rual2a8MPt5cVbIo8tsSpKg9cYGBugiT8d++SvCfBYyqVECQIYqOl /EdNWeFDiRhzyy35n9QG+n2Xlr+J5gD7WCPtUbHqq+7moz9HsPk/SPwlkY9QRSBiEXbyBgC1t+Y/ QCsXxbp8SAh05q0X6RbJGwB4ghn3kYjoOCkCLiyvKjwn/a2urvXPW/MNCu5D1wVrP7PEWTVl+b/C w5ObI4kr0SqXBS4C8QDARBXj/QLxj49MRhLuoJWKL5IBEd6+u00K2heuJ9DSMS21Cwvno43HAyxH MmZ8vkQEfWJ5Vmft4hN31DbYMwBeD7LLm+9YMYKwdpzug7UL85+EtScRWJWopJMih+VcVxHVTl/V fXSb5O24n0i9GHkgosbEA/lTfY93dZn/+srRIp4nBehzyK7a17e93tIaPHHTwsLUr7sEgKRUlTdf IYJ7AKQlIQQrsEuKiyVlS6aono7NBP5AYHssPkw7+mgG5WGhZ2JNWeHsZNZyrF1c+GFNWcFUK5gI 4BECexKWNLTPOgYIvGiB6btbTSHmz4/tpqT7itpqFxSWEaYIwCMA43LDTIIktoK41xL3R9NX7cLC t2oDW04VMZcQ2BCv3weBIIh/kPaK+qat3WIiQUUvpY/H+jLHsYvdIC4GpH8YzdaywXetSOdniQ6f UzFIXDwLwSEPoCZgIbgTbc3Xb11yYozLl8TH+nKmvVkeuAWUq5PwqLQDK//4Xma3SHRD1ezd2ZaB zCjq1bFpc/rWbpvMUsxGYYT1+gTbkNY3od87gbY9rQ1z0z2tV3sx6Lsw5gwQpxD8SqgnCZCgAA0U vEXy2eY2Lt++pGhzvGMPnbDuVqwDMCP3ytVzkOWdAuJMEZyAUHfMh4CABbBdiA0EX7ci/wiIfTVW JVE6U7sgfwOAGcOvqvi18ZkLDHg2gLEAfFF020LgA5Avu+ALmxuwEvcVxWbTwdLTWmqAhzCz4vG8 fs5pEE4D8A0AwyLtsv3vkJ8RqCD4grXmhc2LCkIvv2TlQ5jIXrskujxG8hCD1gJOhO+Xsnvb4MiL Nm8e7gvmBVojfq821k3KDuKuJHrBetSqlzfdRsg1CCF2gp97xJw0vtjXeXXz0vVp/kDrcwL8RydX tRKYV1uWvzTVDpU/lDfLm3JdyINCfDeJYdClPWvC1Cw9VUFFxT+v6sciiGi3MsHde1p3fWXnkslf zI7N2pDu9+zKg4NjYeSrIPNEZCCIrI4rLIQ7SPmMhp/Q2vXise/X3XzC57H4fhIl9xerB0rQOw7C iUIZR2AMQL+IDCXpdJzn2v5+ShAgIEKADQLZArKOwCcQ+RiWH7jke80ebE5EstalKeXO8COOyPXQ KSB5HASjAfoFMohkP4hkAED78Z92pxCNALYTUivCjwG+ExRUbV69exNeSUyVgAGz3uiXmeE7SsQW 0uJoERxGYBiIfiLIYcdnmwBNIJogsoPgFgE+JeV9V/hmG5r+FerZq6pn6nbJW8WTuwYZx/sBur6T DJLm3MKp6c90etWUcsd/+Oh7RHBpJ1fVk855tQvG/yXceJOBpTRVRwWmiJHbAQxNajCCVxre8X1n 8nxJ6fIpKvXFPHlTyLmuIttpQWamLy0DAJqaWwNtvrTmho/e35XKJ8Mo1dt1q8emAFB0Xr/tVcub bgXkZhw6+aRAlhZMTXu2q/78h4+aA8HFB+2EoAg+den8eNOC8Sl5qPyXrX5058hqX8tCUM4E4CQz FgJBBnmjJm5KpaaO2bPkz6AppcLS7ZI3ANjWsuvOwenZ09G+1uFg/hGQbb8E8jp9vJk3t2oqwZvk UBs3BK8HWu0525cUpNC6loN7+0kObTUtcyC8EmRmSkypEo8VnZf5WrLDUEoppXqSbpm8fW/6sMaq ZY1zRcyfeGDitU0sLjxxWl6nGwr8cytOgPBeETlgdqqj8O7TjTvtpfX3hb6uY31501faaE73SvpT 44oTc/5gxbLmUQI7q1UC5wskkUdddYHbHJNxY7KjUEoppXqabpm8AUDB1KwXq5YHHgNw4T5fbrXW XlQ0LeuTztrmzasYBTHPADjg+BMCQQgW1W788JfhrPlYu6zxzFbK/QAHtbK5rGpZ4GnClrcFm/8+ 6fyBMa1NtKZ8zzCHzrcFmE7wVMGBCWiSWVKuO/5cqUt2IEoppVRP022TNwAIinu9h85kAF8BAAEW FU3L+nNnbfpfU92fYlcIDlIShGih4Jq6svx7gYKQdpRW3Euvk9NcSosSfFHYNxOCCwTmAq83Y0vV sqZVBFY65D+DuzLXF10mYW1Df+059s1sbs4X4CQLfFuIInQkninxePRAfykwvkeTHYRSSinVE3Xr 5G1icZ8t1cubryD4HICVO4f4ft3Z9YeXbvQFAzueBOX4L2c9BLaJ5QV1iwpfCnX8dU83+W2w+VES 3/z3VvsvEcgwCM4W4GwrQtO/uaVyeeBDgB8CqCNlqxHuBE17QmeQAbI/iaEi+AqJMdLcfBgAh4Ck aLK2r81WeIVoQV6llFIqLrp18gYA+ef6Xqha3vQrr8WTkyd3vqsx2FRfJiLfPyDNIj8CcXbNosIu j8/aq+qpwLfcIB5Ex6xfiASAT4BxgIwD9mZj8kXpuI7/tzdL6w7Z2j6CAGcVFWf+X7IDUUoppXqq bp+8AUDBuZm3dnVNXknVHAJX7vu1jlIgrzUjvXjbwnFbQhlrfTnT2tg8h8B8dH3+aa9CcEnhuZlP JzsOpZRSqifrEclbV/xzK88C8LuDlARZ1rynYea2uyfvCaWfqvLdg9ts4EGK/AApu9wsSYi/DQjo 7lKllFIq3np88uYveXOi0D4MIH3v1wgEKbilbmP+b7AitLVZlU8Fvi7AwxQcEa9Yuy3iAycteN7I qaKHIiullFJx1qOTt+HXrf8KbGs5ZJ+SIERAgJ/XlhU8GEofLKWpHtvyc4A3k8iMW7Dd1zYbdM8p mNo3wgOLlVJKKRWOHpu85cysyPbY1mcgOGzv10hsJTmtbmHhy6H0saq8YUCVDdwjkHOgj0kPgg0Q mVJ0fp+3kx2JUkop1Vv02OQts7/zIwL50rF9k8T7QWPO2XLr8e+E0r7yicZCoXkMgqPjGmj3FYDl 9IJpma8mOxCllFKqNzn4mZ49QF3Z8Y+CLCNgSbzc2tr6zVASN5bSVD4VmCke8wqgidvBEGgieX7B tKznkx2LUkop1dv02Jk3QFibyV/mNVW/1Urn+a23T2rsqsX7z7Hvm83NtwtxIXpwYhsd2QXaiwqn Zj6T7EiUUkqp3qgHJ28A5outAZ4K5dK1y3aPawoEnoDIcbq67ZC2w3Jq4bTMvyU7EKWUUqq36tnJ W4gqlwfOF3ApIP2THUsK+8S19uwJ07Kqkx2I6p2skc2GttOziw/NNKV7BoR1prBSSqWqXj3HtO7R LVluWr8FEPkpNJHtBP9pBefpsVdKKaVU8vXadV1vLmv+qpue/VeIXAFN3A7FBfHAtpZd39PETSml lEoNvTZ5s8JiEEXJjiN1sUGAS557z3fZ96YP63Kzh1JKKaUSo1c/Nn1zWfMPXfBuEeQlO5aUQq6C cX5aUJz+brJDUUoppdT+eu3MGwAcP9X3pzbrTgDxGCDBZMeTbCKyG8CNfftlnKqJm1JKKZWaevXM 276qljV+H2IWAhib7FgSjrAE/tfrMVcfd076+8kORymllFKH1qtn3vZVMDXrxQbZfQLA6wF8nux4 EoQgNkBYvOu9N36giZtSSimV+nTm7SDWlO8Z5qWnxIKXCtA32fHESR2tvZm7dj5UdFluU7KDUUop pVRoNHnrxOrywEiv5c8huASQ7GTHEwMkUCOQRZKW/mj+WbIz2QEppZRSKjyavIWg4sldg4zjuUQg FxE4MtnxRCAIYLUI7+7TJ+PpMadJS7IDUkoppVRkNHkLw8aH6NuZ2XIqwAtJ/ACCTKTuz5AAPiP4 tIeeB48z3nVSLG6yg1JKKaVUdFI18Uh568s5oNVt/gEMzyFwkkAGJjsmtG9A+D8A/wvI0337pb+s s2xKKaVUz6LJWwxUP8v+bGn5GoHJAk6G4FgAaYj3z5ewENkDYDXJVw3s/7gNO9/RDQhKKaVUz6XJ Wxy88fjn/dK8mcdbMt+IHAfgaAC5IAZG8qhVAEvILoCfQ/AJLN+FkXUCp3IDPni3uHhca1y+EaWU UkqlHE3eEmRVeU2GCeb08xrvAIod5oEZ7DKYA0omRDL3v1oaRNhEYT2BbdJittBp3YndfRuKLpO2 5HwHSimllFJKKaWUUkoppZRSSimllFJKKaWUUkoppZRSSimllFJKKaWUUkoppZRSSimllFJKKaWU UkoppZRSSimllFJKKaWUUkoppZRSSimllFJKKaWUUkoppZRSSimllFJKKaWUUkoppZRSSimllFJK KaWUUkoppZRSSimllFJKKaWUUkoppZRSSimllFJKKaWUUkoppZRSSimllFJKKaWUUkoppZRSSiml lFJKKaWUUkoppZRSSimllFJKKaWUUkoppZRSSimllFJKKaWUUkoppZRSSimllFJKKaWUUkoppZRS Siml/u3/AyFf1jWbFSCZAAAAAElFTkSuQmCC "
     id="image3232"
     x="223.00362"
     y="226.48842" />
  <text
     style="font-style:normal;font-variant:normal;font-weight:normal;font-stretch:normal;font-size:3.175px;font-family:sans-serif;-inkscape-font-specification:sans-serif;text-align:start;text-anchor:start;fill:#000000;fill-opacity:1;stroke:#000000;stroke-width:0.0499999;stroke-dasharray:none;stroke-opacity:1"
     x="222.38533"
     y="263.49908"
     id="text662"><tspan
       id="tspan660"
       style="font-style:normal;font-variant:normal;font-weight:normal;font-stretch:normal;font-family:sans-serif;-inkscape-font-specification:sans-serif;text-align:start;text-anchor:start;stroke-width:0.05"
       x="222.38533"
       y="263.49908">REVIEWED BY</tspan></text>
  <text
     style="font-style:normal;font-variant:normal;font-weight:normal;font-stretch:normal;font-size:3.175px;font-family:sans-serif;-inkscape-font-specification:sans-serif;text-align:start;text-anchor:start;fill:#000000;fill-opacity:1;stroke:#000000;stroke-width:0.0499999;stroke-dasharray:none;stroke-opacity:1"
     x="222.38533"
     y="270.46643"
     id="text666"
     freecad:editable="reviewer"><tspan
       id="tspan664"
       style="font-style:normal;font-variant:normal;font-weight:normal;font-stretch:normal;font-family:sans-serif;-inkscape-font-specification:sans-serif;text-align:start;text-anchor:start;stroke-width:0.05"
       x="222.38533"
       y="270.46643">name</tspan></text>
  <text
     style="font-style:normal;font-variant:normal;font-weight:normal;font-stretch:normal;font-size:3.175px;font-family:sans-serif;-inkscape-font-specification:sans-serif;text-align:start;text-anchor:start;fill:#000000;fill-opacity:1;stroke:#000000;stroke-width:0.0499999;stroke-dasharray:none;stroke-opacity:1"
     x="222.38533"
     y="249.90511"
     id="text670"><tspan
       id="tspan668"
       style="font-style:normal;font-variant:normal;font-weight:normal;font-stretch:normal;font-family:sans-serif;-inkscape-font-specification:sans-serif;text-align:start;text-anchor:start;stroke-width:0.05"
       x="222.38533"
       y="249.90511">DRAWN BY</tspan></text>
  <text
     style="font-style:normal;font-variant:normal;font-weight:normal;font-stretch:normal;font-size:3.175px;font-family:sans-serif;-inkscape-font-specification:sans-serif;text-align:start;text-anchor:start;fill:#000000;fill-opacity:1;stroke:#000000;stroke-width:0.0499999;stroke-dasharray:none;stroke-opacity:1"
     x="222.38533"
     y="256.87244"
     id="text674"
     freecad:editable="drawer"><tspan
       id="tspan672"
       style="font-style:normal;font-variant:normal;font-weight:normal;font-stretch:normal;font-family:sans-serif;-inkscape-font-specification:sans-serif;text-align:start;text-anchor:start;stroke-width:0.05"
       x="222.38533"
       y="256.87244">name</tspan></text>
  <text
     style="font-style:normal;font-variant:normal;font-weight:normal;font-stretch:normal;font-size:3.175px;font-family:sans-serif;-inkscape-font-specification:sans-serif;text-align:start;text-anchor:start;fill:#000000;fill-opacity:1;stroke:#000000;stroke-width:0.0499999;stroke-dasharray:none;stroke-opacity:1"
     x="356.17978"
     y="249.45898"
     id="text5888"><tspan
       style="font-style:normal;font-variant:normal;font-weight:normal;font-stretch:normal;font-family:sans-serif;-inkscape-font-specification:sans-serif;text-align:start;text-anchor:start;stroke-width:0.05"
       x="356.17978"
       y="249.45898"
       id="tspan5886">LICENSE</tspan></text>
  <text
     style="font-style:normal;font-variant:normal;font-weight:normal;font-stretch:normal;font-size:6.35px;font-family:sans-serif;-inkscape-font-specification:sans-serif;text-align:start;text-anchor:start;fill:#000000;fill-opacity:1;stroke:#000000;stroke-width:0.0499999;stroke-dasharray:none;stroke-opacity:1"
     x="356.34961"
     y="256.362"
     id="text5892"
     onclick="https://creativecommons.org/licenses/by-nc-sa/4.0/"><tspan
       style="font-style:normal;font-variant:normal;font-weight:normal;font-stretch:normal;font-size:6.35px;font-family:sans-serif;-inkscape-font-specification:sans-serif;text-align:start;text-anchor:start;stroke-width:0.05"
       x="356.34961"
       y="256.362"
       id="tspan5890">CC BY-NC-SA 4.0</tspan></text>
  <a
     id="a7369"
     xlink:href="https://creativecommons.org/licenses/by-nc-sa/4.0/">
    <text
       xml:space="preserve"
       style="font-size:3.56405px;line-height:1.25;font-family:sans-serif;stroke-width:0.167065"
       x="220.10558"
       y="293.27408"
       id="text7083"><tspan
         id="tspan7081"
         style="stroke-width:0.167065"
         x="220.10558"
         y="293.27408">This work is licensed under a <tspan
   style="fill:#5599ff;stroke-width:0.167065"
   id="tspan7708">Creative Commons Attribution-NonCommercial-ShareAlike 4.0 International License.</tspan></tspan></text>
  </a>
</svg>
